<?xml version="1.0" encoding="UTF-8"?>
<svg width="108px" height="108px" viewBox="0 0 108 108" version="1.1" xmlns="http://www.w3.org/2000/svg" xmlns:xlink="http://www.w3.org/1999/xlink">
    <!-- Generator: Sketch 61.2 (89653) - https://sketch.com -->
    <title>ic_launcher</title>
    <desc>Created with Sketch.</desc>
    <defs>
        <linearGradient x1="24.3631478%" y1="17.3215076%" x2="100%" y2="91.4198371%" id="linearGradient-1">
            <stop stop-color="#DFDFDF" offset="0%"></stop>
            <stop stop-color="#DFDFDF" offset="0%"></stop>
            <stop stop-color="#E3E3E3" offset="55.238577%"></stop>
            <stop stop-color="#EEEEEE" offset="91.3165118%"></stop>
            <stop stop-color="#F5F5F5" offset="100%"></stop>
        </linearGradient>
        <radialGradient cx="36.6355613%" cy="27.6077836%" fx="36.6355613%" fy="27.6077836%" r="52.2215256%" id="radialGradient-2">
            <stop stop-color="#FFFFFF" stop-opacity="0.1" offset="0%"></stop>
            <stop stop-color="#FFFFFF" stop-opacity="0" offset="100%"></stop>
        </radialGradient>
    </defs>
    <g id="ic_launcher" stroke="none" stroke-width="1" fill="none" fill-rule="evenodd">
        <g id="adaptive-icon">
            <g id="ic_launcher">
                <g id="background" fill="#F5F5F5">
                    <rect id="base" x="0" y="0" width="108" height="108"></rect>
                </g>
                <g id="foreground">
                    <path d="M72.3565674,35.6909248 L108,71.494873 L108,108 L81.6105957,108 L28.5537109,54.8959351 L72.3565674,35.6909248 Z" id="long-shadow" fill="url(#linearGradient-1)"></path>
                    <g id="plane" transform="translate(23.500000, 33.500000)">
                        <path d="M46.6497618,1.74862518 L5.76961241,18.1808421 C4.74473979,18.5928007 4.2478748,19.7575825 4.65983341,20.7824551 C4.90017093,21.380368 5.41388003,21.8258482 6.03979198,21.9791327 L24.5,26.5 L24.5,26.5 L29.0208673,44.960208 C29.2836098,46.0330734 30.366334,46.6898077 31.4391994,46.4270652 C32.0651113,46.2737806 32.5788204,45.8283005 32.8191579,45.2303876 L49.2513748,4.35023825 C49.6633334,3.32536563 49.1664684,2.16058378 48.1415958,1.74862518 C47.662929,1.55621989 47.1284286,1.55621989 46.6497618,1.74862518 Z" fill="#5C6BC0"></path>
                        <path d="M48.8107506,2.19023936 C49.3594265,2.73981256 49.5593259,3.58411604 49.2513748,4.35023825 L49.2513748,4.35023825 L32.8191579,45.2303876 C32.5788204,45.8283005 32.0651113,46.2737806 31.4391994,46.4270652 C30.366334,46.6898077 29.2836098,46.0330734 29.0208673,44.960208 L29.026,44.9799248 L24.5,26.5 Z" id="plane-right" fill-opacity="0.63" fill="#3F51B5"></path>
                    </g>
                    <rect id="finish" fill="url(#radialGradient-2)" x="0" y="0" width="108" height="108"></rect>
                </g>
            </g>
        </g>
    </g>
</svg>